{
  "name": "",
  "css_prefix_text": "icon-",
  "css_use_suffix": false,
  "hinting": true,
  "units_per_em": 1000,
  "ascent": 850,
  "glyphs": [
    {
      "uid": "7336aca5419b9958dd5cd0ef1fa98583",
      "css": "golivelogo",
      "code": 59393,
      "src": "custom_icons",
      "selected": true,
      "svg": {
        "path": "M889.4 468.2C889.4 327.6 794.2 185.5 661.7 118.5 639.2 102.2 612.4 91.7 583.2 89.1 556.3 82.4 528.4 78.8 500 78.8 273 78.8 110.5 291.4 110.5 468.2 110.5 560.8 135.3 626 185.1 694 193.8 705.8 209.4 725.4 219.4 736.3 223.1 740.4 224.5 723.6 228.4 727.5 244 714.4 234.7 718.1 258.4 713.5 262.7 712.6 267.1 712.1 271.7 712.1 288.3 712.1 303.6 718.1 315.6 727.9 319 730.7 322.1 733.9 324.9 737.3L343.3 755.6 394.3 704.6C390 701.9 385.8 698.7 382.2 695L277.9 590.7C265.6 578.4 258.8 562 258.8 544.5 258.8 527 265.6 510.6 277.9 498.2L365.2 413.3C392.3 387 428.1 372.4 465.9 372.4H471.9C434.5 343.3 410.4 298 410.4 247.1 410.4 159.6 481.5 88.5 568.9 88.5 573.8 88.5 578.5 88.7 583.2 89.1 610.4 95.9 636.7 105.9 661.7 118.5 701.6 147.3 727.6 194.2 727.6 247.1 727.6 321.2 676.4 383.7 607.5 400.9 637.1 424.7 656.1 461.3 656.1 502.1V512.3H656.5V518.4L706.1 511.8V511.9L724.4 509.5C760.2 504.8 793.2 530 798 565.7 802.8 601.5 777.4 634.4 741.7 639.2L707.6 643.8V643.6L653.5 650.8C651.5 662.1 648.4 673.1 644.2 683.6L649.6 696.1 694.3 803.9C818.5 733 889.4 580.5 889.4 468.2ZM942.2 468.2C942.2 633.9 850.5 778.7 715.2 854.4L724.3 876.6C726.7 880.8 728.5 885.2 730 890 731.6 895.7 732.5 901.9 732.5 908.2 732.5 929.8 722 949 706 961 697.4 967.4 687.1 971.7 676.1 973.3 673.1 973.8 669.9 974 666.8 974 641 974 618.6 959.1 607.9 937.4 606.7 934.9 605.6 932.4 604.7 929.7L592.6 900.7C562.7 907.1 531.7 910.5 500 910.5 461.2 910.5 423.6 905.4 387.8 896.1 373.9 892.4 360.2 888.1 346.9 883.2 336.2 879.2 325.7 874.8 315.4 870.1 302.3 864 289.5 857.3 277 850 251 834.8 226.8 817 204.6 797 192.5 786.2 181.1 774.7 170.3 762.7 100.3 684.5 57.8 581.2 57.8 468.2 57.8 224.4 256.1 26 500 26 743.8 26 942.2 224.4 942.2 468.2ZM572.4 852L542.2 779.7C527.5 784.6 511.9 787.5 495.7 788.2L433.5 850.5C461.3 856.5 470.3 857.7 500 857.7 527.5 857.7 546.2 857.2 572.4 852Z",
        "width": 1000
      },
      "search": [
        "logo_bnw"
      ]
    },
    {
      "uid": "142263941b9f4cd4b2b84f1f4cd13b1d",
      "css": "emo-thumbsup",
      "code": 59396,
      "src": "fontelico"
    }
  ]
}